Julia MLJ - 3-olivetti-face
…
include("./olivetti-face-code/1-dataprocessing.jl")

import MLJ: transform, inverse_transform
using MLJ,DataFrames,CSV,Random,JLSO,GLMakie
Random.seed!(4545343)

TaskLocalRNG()

2. import data

Code

(Xtrain, Xtest), (ytrain, ytest)=load_olivetti_faces()

((320×4096 DataFrame
 Row │ x1         x2        x3         x4        x5        x6        x7        ⋯
     │ Float64    Float64   Float64    Float64   Float64   Float64   Float64   ⋯
─────┼──────────────────────────────────────────────────────────────────────────
   1 │ 0.595041   0.640496  0.615702   0.644628  0.68595   0.72314   0.731405  ⋯
   2 │ 0.103306   0.219008  0.177686   0.219008  0.392562  0.57438   0.669422
   3 │ 0.289256   0.338843  0.417355   0.504132  0.553719  0.561983  0.582645
   4 │ 0.528926   0.797521  0.826446   0.822314  0.822314  0.818182  0.805785
   5 │ 0.161157   0.202479  0.268595   0.334711  0.384298  0.392562  0.396694  ⋯
   6 │ 0.169422   0.293388  0.561983   0.677686  0.727273  0.756198  0.768595
   7 │ 0.136364   0.177686  0.235537   0.289256  0.334711  0.363636  0.396694
   8 │ 0.768595   0.756198  0.743802   0.743802  0.752066  0.747934  0.735537
   9 │ 0.144628   0.210744  0.285124   0.342975  0.392562  0.404959  0.409091  ⋯
  10 │ 0.566116   0.595041  0.603306   0.619835  0.636364  0.640496  0.661157
  11 │ 0.524793   0.53719   0.578512   0.628099  0.669422  0.690083  0.68595
  ⋮  │     ⋮         ⋮          ⋮         ⋮         ⋮         ⋮         ⋮      ⋱
 311 │ 0.181818   0.338843  0.355372   0.404959  0.438017  0.458678  0.471074
 312 │ 0.454545   0.528926  0.644628   0.747934  0.780992  0.780992  0.801653  ⋯
 313 │ 0.553719   0.607438  0.636364   0.64876   0.652893  0.64876   0.673554
 314 │ 0.0909091  0.136364  0.177686   0.231405  0.363636  0.504132  0.541322
 315 │ 0.252066   0.252066  0.252066   0.252066  0.256198  0.239669  0.235537
 316 │ 0.326446   0.483471  0.524793   0.599174  0.665289  0.702479  0.702479  ⋯
 317 │ 0.53719    0.57438   0.553719   0.615702  0.38843   0.487603  0.690083
 318 │ 0.128099   0.18595   0.247934   0.31405   0.38843   0.46281   0.520661
 319 │ 0.586777   0.702479  0.731405   0.731405  0.743802  0.772727  0.793388
 320 │ 0.136364   0.107438  0.0909091  0.115702  0.115702  0.119835  0.181818  ⋯
                                               4089 columns and 299 rows omitted, 80×4096 DataFrame
…
